%YAML 1.1
%TAG !u! tag:unity3d.com,2011:
--- !u!21 &2100000
Material:
  serializedVersion: 6
  m_ObjectHideFlags: 0
  m_PrefabParentObject: {fileID: 0}
  m_PrefabInternal: {fileID: 0}
  m_Name: DragohHat_LOD_2
  m_Shader: {fileID: 4800000, guid: e9a234471563b4cb199c99b275ed7c10, type: 3}
  m_ShaderKeywords: _METALLICGLOSSMAP _NORMALMAP _PARALLAXMAP
  m_LightmapFlags: 5
  m_CustomRenderQueue: -1
  stringTagMap: {}
  m_SavedProperties:
    serializedVersion: 2
    m_TexEnvs:
      data:
        first:
          name: _MainTex
        second:
          m_Texture: {fileID: 2800000, guid: a19ac05c611872044b2fd3e4d35a783c, type: 3}
          m_Scale: {x: 1, y: 1}
          m_Offset: {x: 0, y: 0}
      data:
        first:
          name: _BumpMap
        second:
          m_Texture: {fileID: 2800000, guid: 4b39e51a09b9e3348a8aa2d161d5a90e, type: 3}
          m_Scale: {x: 1, y: 1}
          m_Offset: {x: 0, y: 0}
      data:
        first:
          name: _DetailNormalMap
        second:
          m_Texture: {fileID: 0}
          m_Scale: {x: 1, y: 1}
          m_Offset: {x: 0, y: 0}
      data:
        first:
          name: _MetallicGlossMap
        second:
          m_Texture: {fileID: 2800000, guid: 07d392edb596b8947a52c7dcecff94b9, type: 3}
          m_Scale: {x: 1, y: 1}
          m_Offset: {x: 0, y: 0}
      data:
        first:
          name: _ParallaxMap
        second:
          m_Texture: {fileID: 2800000, guid: a57463b9f9edabd4f9e98d74ecda9373, type: 3}
          m_Scale: {x: 1, y: 1}
          m_Offset: {x: 0, y: 0}
      data:
        first:
          name: _OcclusionMap
        second:
          m_Texture: {fileID: 0}
          m_Scale: {x: 1, y: 1}
          m_Offset: {x: 0, y: 0}
      data:
        first:
          name: _EmissionMap
        second:
          m_Texture: {fileID: 0}
          m_Scale: {x: 1, y: 1}
          m_Offset: {x: 0, y: 0}
      data:
        first:
          name: _DetailMask
        second:
          m_Texture: {fileID: 0}
          m_Scale: {x: 1, y: 1}
          m_Offset: {x: 0, y: 0}
      data:
        first:
          name: _DetailAlbedoMap
        second:
          m_Texture: {fileID: 0}
          m_Scale: {x: 1, y: 1}
          m_Offset: {x: 0, y: 0}
    m_Floats:
      data:
        first:
          name: _SrcBlend
        second: 1
      data:
        first:
          name: _DstBlend
        second: 0
      data:
        first:
          name: _Cutoff
        second: 0.5
      data:
        first:
          name: _ZWrite
        second: 1
      data:
        first:
          name: _Glossiness
        second: 0.5
      data:
        first:
          name: _Metallic
        second: 0
      data:
        first:
          name: _BumpScale
        second: 1
      data:
        first:
          name: _Parallax
        second: 0.02
      data:
        first:
          name: _OcclusionStrength
        second: 1
      data:
        first:
          name: _DetailNormalMapScale
        second: 1
      data:
        first:
          name: _UVSec
        second: 0
      data:
        first:
          name: _Mode
        second: 0
      data:
        first:
          name: _EmissionScaleUI
        second: 0
    m_Colors:
      data:
        first:
          name: _EmissionColor
        second: {r: 0, g: 0, b: 0, a: 1}
      data:
        first:
          name: _Color
        second: {r: 1, g: 1, b: 1, a: 1}
      data:
        first:
          name: _EmissionColorUI
        second: {r: 1, g: 1, b: 1, a: 1}
